<svg xmlns="http://www.w3.org/2000/svg" width="20.227" height="19.805" viewBox="0 0 20.227 19.805">
  <path id="Path" d="M10.112,0A10.16,10.16,0,0,0,6.917,19.788c.506.094.69-.22.69-.489,0-.241-.009-.88-.014-1.727-2.813.613-3.407-1.361-3.407-1.361a2.681,2.681,0,0,0-1.123-1.485c-.919-.63.068-.617.068-.617a2.124,2.124,0,0,1,1.549,1.047A2.149,2.149,0,0,0,7.625,16a2.167,2.167,0,0,1,.642-1.358c-2.245-.257-4.607-1.128-4.607-5.017A3.936,3.936,0,0,1,4.7,6.9a3.659,3.659,0,0,1,.1-2.686s.85-.273,2.781,1.04a9.546,9.546,0,0,1,5.064,0c1.93-1.313,2.779-1.04,2.779-1.04a3.664,3.664,0,0,1,.1,2.686,3.928,3.928,0,0,1,1.039,2.726c0,3.9-2.364,4.758-4.617,5.01a2.429,2.429,0,0,1,.686,1.88c0,1.358-.013,2.452-.013,2.785,0,.272.182.588.7.488A10.161,10.161,0,0,0,10.112,0Z" fill="#10182f"/>
</svg>
